{"news":[{"title":"Tickets on sale now for six Warhammer Opens and more events this spring and summer","site":"en-gb","slug":"tickets-on-sale-now-for-six-warhammer-opens-and-more-events-this-spring-and-summer","excerpt":"Are you heading to a Warhammer event this summer?","image":{"path":"events-feb27-1-feature-smzwwtt4zb.jpg","alt":null,"width":1000,"height":620,"focus":"50% 50%"},"collection":"articles","game_system":{"light":{"path":"icon-dark-warhammer.svg","alt":null,"width":24,"height":25,"focus":"50% 50%"},"dark":{"path":"icon-light-warhammer.svg","alt":null,"width":24,"height":25,"focus":"50% 50%"}},"topics":[{"title":"Events","slug":"events"},{"title":"Warhammer Open Series","slug":"warhammer-open-series"}],"date":"27 Feb 26","hide_date":false,"hide_read_time":false,"interaction_time":"3 min","uri":"/articles/xl5grii2/tickets-on-sale-now-for-six-warhammer-opens-and-more-events-this-spring-and-summer","id":"30de6414-e434-4cc9-bcd1-27a9794f3b38","uuid":"xl5grii2"},{"title":"Aeldari Corsair showcase: The Ballad of the Sky Serpents part two","site":"en-gb","slug":"aeldari-corsair-showcase-the-ballad-of-the-sky-serpents-part-two","excerpt":"New corsair miniatures expand this incredible collection.","image":{"path":"40k_pwcorsairs-feb27-1-feature-deyyuc5ka5.jpg","alt":null,"width":1455,"height":900,"focus":"50% 50%"},"collection":"articles","game_system":{"title":"Warhammer 40,000","light":{"path":"gs-icon-dark_warhammer40,000.svg","alt":null,"width":"400","height":"400","focus":"50% 50%"},"dark":{"path":"gs-icon-light_warhammer40,000.svg","alt":null,"width":"400","height":"400","focus":"50% 50%"}},"topics":[{"title":"Aeldari","slug":"aeldari"},{"title":"Community showcase","slug":"community-showcase"},{"title":"Warhammer 40,000","slug":"warhammer-40000"}],"date":"27 Feb 26","hide_date":false,"hide_read_time":false,"interaction_time":"7 min","uri":"/articles/jyswoccs/aeldari-corsair-showcase-the-ballad-of-the-sky-serpents-part-two","id":"269ac36e-c26a-43b3-99ec-f3bfa6b79faa","uuid":"jyswoccs"},{"title":"First look at the datasheet for the new Tyranid Prime with Lash Whip","site":"en-gb","slug":"first-look-at-the-datasheet-for-the-new-tyranid-prime-with-lash-whip","excerpt":"Check out the rules for the new Tyranid leader-beast","image":{"path":"40k_tyrprimewhiprules-feb27-1-feature-wfsrlfrnfe.jpg","alt":null,"width":1455,"height":900,"focus":"50% 50%"},"collection":"articles","game_system":{"title":"Warhammer 40,000","light":{"path":"gs-icon-dark_warhammer40,000.svg","alt":null,"width":"400","height":"400","focus":"50% 50%"},"dark":{"path":"gs-icon-light_warhammer40,000.svg","alt":null,"width":"400","height":"400","focus":"50% 50%"}},"topics":[{"title":"Tyranids","slug":"tyranids"},{"title":"Warhammer 40,000","slug":"warhammer-40000"}],"date":"27 Feb 26","hide_date":false,"hide_read_time":false,"interaction_time":"2 min","uri":"/articles/uvhbkjz6/first-look-at-the-datasheet-for-the-new-tyranid-prime-with-lash-whip","id":"1b8a8236-fa89-4903-a654-27563734350a","uuid":"uvhbkjz6"},{"title":"Warhammer art through the years: The Inquisition","site":"en-gb","slug":"warhammer-art-through-the-years-the-inquisition","excerpt":"Awesome art from the Warhammer archives.","image":{"path":"whart_22-inq-feb27-1-feature-y3h57mzcyw.jpg","alt":null,"width":1455,"height":900,"focus":"50% 50%"},"collection":"articles","game_system":{"title":"Warhammer 40,000","light":{"path":"gs-icon-dark_warhammer40,000.svg","alt":null,"width":"400","height":"400","focus":"50% 50%"},"dark":{"path":"gs-icon-light_warhammer40,000.svg","alt":null,"width":"400","height":"400","focus":"50% 50%"}},"topics":[{"title":"Imperial Agents","slug":"imperial-agents"},{"title":"Warhammer 40,000","slug":"warhammer-40000"}],"date":"27 Feb 26","hide_date":false,"hide_read_time":false,"interaction_time":"1 min","uri":"/articles/yvbfxyjp/warhammer-art-through-the-years-the-inquisition","id":"ba7d2ae4-2b76-47e8-b253-e2ef7458fd95","uuid":"yvbfxyjp"},{"title":"The Techmarine class comes to Warhammer 40,000: Space Marine 2 with a new mission and cosmetics in tow","site":"en-gb","slug":"the-techmarine-class-comes-to-warhammer-40000-space-marine-2-with-a-new-mission-and-cosmetics-in-tow","excerpt":"Wield the power of the Omnissiah.","image":{"path":"sm2_update-feb26-1-feature-pglezkaos0.jpg","alt":null,"width":1455,"height":900,"focus":"50% 50%"},"collection":"articles","game_system":{"title":"Warhammer 40,000","light":{"path":"gs-icon-dark_warhammer40,000.svg","alt":null,"width":"400","height":"400","focus":"50% 50%"},"dark":{"path":"gs-icon-light_warhammer40,000.svg","alt":null,"width":"400","height":"400","focus":"50% 50%"}},"topics":[{"title":"Video Games","slug":"video-games"},{"title":"Licensed Products","slug":"licensed-products"},{"title":"Space Marines","slug":"space-marines"},{"title":"Warhammer 40,000","slug":"warhammer-40000"}],"date":"26 Feb 26","hide_date":false,"hide_read_time":false,"interaction_time":"3 min","uri":"/articles/jgazn8yc/the-techmarine-class-comes-to-warhammer-40000-space-marine-2-with-a-new-mission-and-cosmetics-in-tow","id":"f2e5084c-a941-4c32-a5eb-4108cc0bdd2c","uuid":"jgazn8yc"},{"title":"Warhammer Relics 2026 – All the reveals and deals from the Warhammer merch festival","site":"en-gb","slug":"warhammer-relics-2026-the-warhammer-merch-festival","excerpt":"Discover new reveals and special deals from our licensed partners.","image":{"path":"relics-feb26-1-feature-dhg4wrmrtn.jpg","alt":null,"width":1455,"height":900,"focus":"50% 50%"},"collection":"articles","game_system":{"light":{"path":"icon-dark-warhammer.svg","alt":null,"width":24,"height":25,"focus":"50% 50%"},"dark":{"path":"icon-light-warhammer.svg","alt":null,"width":24,"height":25,"focus":"50% 50%"}},"topics":[{"title":"Licensed Products","slug":"licensed-products"}],"date":"26 Feb 26","hide_date":false,"hide_read_time":false,"interaction_time":"6 min","uri":"/articles/2vflzaxp/warhammer-relics-2026-the-warhammer-merch-festival","id":"d99217ba-4ad7-405a-b9ab-7e274b64c81c","uuid":"2vflzaxp"},{"title":"Pages from the Black Books – The World Eaters","site":"en-gb","slug":"pages-from-the-black-books-the-world-eaters","excerpt":"Burn, maim, and kill with Angron’s berserkers.","image":{"path":"thh_blackbookslore7-feb26-1-feature-xatk8c1ucz.jpg","alt":null,"width":1455,"height":900,"focus":"50% 50%"},"collection":"articles","game_system":{"title":"Warhammer: The Horus Heresy","light":{"path":"gs-icon-dark-thehorusheresy.svg","alt":null,"width":"400","height":"400","focus":"50% 50%"},"dark":{"path":"gs-icon-light-thehorusheresy.svg","alt":null,"width":"400","height":"400","focus":"50% 50%"}},"topics":[{"title":"Downloads","slug":"downloads"},{"title":"Warhammer: The Horus Heresy","slug":"warhammer-the-horus-heresy"}],"date":"26 Feb 26","hide_date":false,"hide_read_time":false,"interaction_time":"1 min","uri":"/articles/ntq1stob/pages-from-the-black-books-the-world-eaters","id":"ca4b6f65-b66b-493f-a081-893ccb860f0f","uuid":"ntq1stob"},{"title":"Old World Almanack – Return to Grand Cathay as the Great Bastion faces peril","site":"en-gb","slug":"old-world-almanack-return-to-grand-cathay-as-the-great-bastion-faces-peril","excerpt":"Get an update on the lore of the Old World’s newest faction.","image":{"path":"tow_greatbastionlore-feb25-1-feature-kslrxud00r.jpg","alt":null,"width":1455,"height":900,"focus":"50% 50%"},"collection":"articles","game_system":{"title":"Warhammer: The Old World","light":{"path":"gs-icon-dark_warhammer-theoldworld.svg","alt":null,"width":"400","height":"400","focus":"50% 50%"},"dark":{"path":"gs-icon-light_warhammer-theoldworld.svg","alt":null,"width":"400","height":"400","focus":"50% 50%"}},"topics":[{"title":"Old World Almanack","slug":"old-world-almanack"},{"title":"Warhammer: The Old World","slug":"warhammer-the-old-world"}],"date":"25 Feb 26","hide_date":false,"hide_read_time":false,"interaction_time":"3 min","uri":"/articles/hjmlb8wk/old-world-almanack-return-to-grand-cathay-as-the-great-bastion-faces-peril","id":"64bc9311-0fc7-4b7b-a2ac-f55d77929986","uuid":"hjmlb8wk"},{"title":"New animation Adepta Sororitas: Penitence arrives on Warhammer+ along with a host of special content","site":"en-gb","slug":"new-animation-adepta-sororitas-penitence-arrives-on-warhammer-along-with-a-host-of-special-content","excerpt":"A group of Adepta Sororitas must overcome a physical and spiritual ordeal in the latest Warhammer TV animation.","image":{"path":"whplus-feb25-1-feature-acamxhuabi.jpg","alt":null,"width":1455,"height":900,"focus":"50% 50%"},"collection":"articles","game_system":{"title":"Warhammer Plus","light":{"path":null,"alt":null,"width":"","height":"","focus":"50% 50%"},"dark":{"path":null,"alt":null,"width":"","height":"","focus":"50% 50%"}},"topics":[{"title":"Warhammer Plus","slug":"warhammer-plus"}],"date":"25 Feb 26","hide_date":false,"hide_read_time":false,"interaction_time":"4 min","uri":"/articles/mb5z0ebi/new-animation-adepta-sororitas-penitence-arrives-on-warhammer-along-with-a-host-of-special-content","id":"34abba98-5ffe-401d-8bdb-2c7df580b1a9","uuid":"mb5z0ebi"},{"title":"Berehk Stornbröw is the premier Big Guy-killer in the Leagues of Votann, as proved by his new datasheet","site":"en-gb","slug":"berehk-stornbrow-is-the-premier-big-guy-killer-in-the-leagues-of-votann-as-proved-by-his-new-datasheet","excerpt":"Check out the new miniature’s powerful rules.","image":{"path":"40k_berehkrules-feb25-1-feature-bm8enmuuul.jpg","alt":null,"width":1455,"height":900,"focus":"50% 50%"},"collection":"articles","game_system":{"title":"Warhammer 40,000","light":{"path":"gs-icon-dark_warhammer40,000.svg","alt":null,"width":"400","height":"400","focus":"50% 50%"},"dark":{"path":"gs-icon-light_warhammer40,000.svg","alt":null,"width":"400","height":"400","focus":"50% 50%"}},"topics":[{"title":"Leagues of Votann","slug":"leagues-of-votann"},{"title":"Warhammer 40,000","slug":"warhammer-40000"}],"date":"25 Feb 26","hide_date":false,"hide_read_time":false,"interaction_time":"2 min","uri":"/articles/aqaoebif/berehk-stornbrow-is-the-premier-big-guy-killer-in-the-leagues-of-votann-as-proved-by-his-new-datasheet","id":"38cfe880-c0de-4c5f-9380-2be27b152646","uuid":"aqaoebif"},{"title":"Heraldry of the Dark Mechanicum – Part One","site":"en-gb","slug":"heraldry-of-the-dark-mechanicum-part-one","excerpt":"Get colour scheme inspiration for your corrupted Dark Mechanicum forces.","image":{"path":"thh_darkmechanicumheraldry1-1-featurealt-npxf7dbojy.jpg","alt":null,"width":1455,"height":900,"focus":"50% 50%"},"collection":"articles","game_system":{"title":"Warhammer: The Horus Heresy","light":{"path":"gs-icon-dark-thehorusheresy.svg","alt":null,"width":"400","height":"400","focus":"50% 50%"},"dark":{"path":"gs-icon-light-thehorusheresy.svg","alt":null,"width":"400","height":"400","focus":"50% 50%"}},"topics":[{"title":"Warhammer: The Horus Heresy","slug":"warhammer-the-horus-heresy"}],"date":"24 Feb 26","hide_date":false,"hide_read_time":false,"interaction_time":"5 min","uri":"/articles/q0qhnrpr/heraldry-of-the-dark-mechanicum-part-one","id":"827f2bd4-96c2-4072-960d-497d426693ae","uuid":"q0qhnrpr"},{"title":"You could win a Captain Titus vs. Huron Blackheart face-off Combat Patrol bundle","site":"en-gb","slug":"you-could-win-a-captain-titus-vs-huron-blackheart-face-off-combat-patrol-bundle","excerpt":"Enter in just a few short clicks – it’s easy!","image":{"path":"40k_emailcomp-feb24-1-feature-l9hjvdgydj.jpg","alt":null,"width":1455,"height":900,"focus":"50% 50%"},"collection":"articles","game_system":{"title":"Warhammer 40,000","light":{"path":"gs-icon-dark_warhammer40,000.svg","alt":null,"width":"400","height":"400","focus":"50% 50%"},"dark":{"path":"gs-icon-light_warhammer40,000.svg","alt":null,"width":"400","height":"400","focus":"50% 50%"}},"topics":[{"title":"Combat Patrol","slug":"combat-patrol"},{"title":"Warhammer 40,000","slug":"warhammer-40000"}],"date":"24 Feb 26","hide_date":false,"hide_read_time":false,"interaction_time":"2 min","uri":"/articles/3t4ojqii/you-could-win-a-captain-titus-vs-huron-blackheart-face-off-combat-patrol-bundle","id":"63e818ab-5e92-45a7-8c23-a3cbf9f0084a","uuid":"3t4ojqii"},{"title":"Old World Almanack – Enhance your Grand Cathay collection with the new reinforcements","site":"en-gb","slug":"old-world-almanack-enhance-your-grand-cathay-collection-with-the-new-reinforcements","excerpt":"Find out what peasants, wizards, and lots of guns will add to your army.","image":{"path":"tow_greatbastionrules-feb24-1-feature-4lice52xlq.jpg","alt":null,"width":1455,"height":900,"focus":"50% 50%"},"collection":"articles","game_system":{"title":"Warhammer: The Old World","light":{"path":"gs-icon-dark_warhammer-theoldworld.svg","alt":null,"width":"400","height":"400","focus":"50% 50%"},"dark":{"path":"gs-icon-light_warhammer-theoldworld.svg","alt":null,"width":"400","height":"400","focus":"50% 50%"}},"topics":[{"title":"Warhammer: The Old World","slug":"warhammer-the-old-world"},{"title":"Old World Almanack","slug":"old-world-almanack"}],"date":"24 Feb 26","hide_date":false,"hide_read_time":false,"interaction_time":"4 min","uri":"/articles/paqibeae/old-world-almanack-enhance-your-grand-cathay-collection-with-the-new-reinforcements","id":"6a45f52a-5b55-4032-afcc-990764b862f8","uuid":"paqibeae"},{"title":"The Rumour Engine – 24th of February","site":"en-gb","slug":"the-rumour-engine-24th-of-february","excerpt":"What could it be?","image":{"path":"rumourengine-feb24-1-feature-7xz7kb8oso.jpg","alt":null,"width":1000,"height":620,"focus":"50% 50%"},"collection":"articles","game_system":{"title":"Rumour Engine","light":{"path":null,"alt":null,"width":"","height":"","focus":"50% 50%"},"dark":{"path":null,"alt":null,"width":"","height":"","focus":"50% 50%"}},"topics":[{"title":"Rumour Engine","slug":"rumour-engine"}],"date":"24 Feb 26","hide_date":false,"hide_read_time":false,"interaction_time":"1 min","uri":"/articles/8h8u1nsa/the-rumour-engine-24th-of-february","id":"ecc2f020-a467-4452-a824-410d72e5eac2","uuid":"8h8u1nsa"},{"title":"New Imperial Knight Destrier strides into battle","site":"en-gb","slug":"new-imperial-knight-destrier-strides-into-battle","excerpt":"The new Imperial Knight is a fast and agile close combat king.","image":{"path":"1-feature-ghlne9e8fc.jpg","alt":null,"width":1455,"height":900,"focus":"50% 50%"},"collection":"articles","game_system":{"title":"Warhammer 40,000","light":{"path":"gs-icon-dark_warhammer40,000.svg","alt":null,"width":"400","height":"400","focus":"50% 50%"},"dark":{"path":"gs-icon-light_warhammer40,000.svg","alt":null,"width":"400","height":"400","focus":"50% 50%"}},"topics":[{"title":"Model Reveal","slug":"model-reveal"},{"title":"Imperial Knights","slug":"imperial-knights"},{"title":"Warhammer 40,000","slug":"warhammer-40000"}],"date":"23 Feb 26","hide_date":false,"hide_read_time":false,"interaction_time":"2 min","uri":"/articles/utzwpur9/new-imperial-knight-destrier-strides-into-battle","id":"3498f0d7-6917-4c02-baf6-1c750220770c","uuid":"utzwpur9"},{"title":"T’au Empire’s Twin Lance datasheet lets you perfect close-range enemy-melting","site":"en-gb","slug":"tau-empires-twin-lance-datasheet-lets-you-perfect-close-range-enemy-melting","excerpt":"Who ever said the T’au were no good up close?","image":{"path":"40k_twinlance-feb23-1-feature-8yrst2amht.jpg","alt":null,"width":1455,"height":900,"focus":"50% 50%"},"collection":"articles","game_system":{"title":"Warhammer 40,000","light":{"path":"gs-icon-dark_warhammer40,000.svg","alt":null,"width":"400","height":"400","focus":"50% 50%"},"dark":{"path":"gs-icon-light_warhammer40,000.svg","alt":null,"width":"400","height":"400","focus":"50% 50%"}},"topics":[{"title":"T'au Empire","slug":"tau-empire"},{"title":"Warhammer 40,000","slug":"warhammer-40000"}],"date":"23 Feb 26","hide_date":false,"hide_read_time":false,"interaction_time":"2 min","uri":"/articles/g1glqtzl/tau-empires-twin-lance-datasheet-lets-you-perfect-close-range-enemy-melting","id":"4809c50d-060a-4702-889b-aa76ce9291bd","uuid":"g1glqtzl"}],"paginate":{"total_items":6168,"items_per_page":16,"total_pages":63,"current_page":1}}